{
	"wlanssid": "WLANSSIDHERE",
	"wlanpassword": "WLANPASSWORDHERE",

	"azureiothub": "AZURE IOT HUB NAME HERE",
	"azuredevice": "AZURE IOT DEVICE NAME HERE",
	"azurecertificateDER": "cert-azure.der",
	"azureprivatekeyDER": "key-azure.der",

	"awsiothub": "AWS IOT HUB NAME HERE",
	"awsdevice": "AWS IOT DEVICE NAME HERE",
	"awscertificateDER": "cert-aws.der",
	"awsprivatekeyDER": "key-aws.der"
}